%YAML 1.1
%TAG !u! tag:unity3d.com,2011:
--- !u!1 &3456333297034900796
GameObject:
  m_ObjectHideFlags: 0
  m_CorrespondingSourceObject: {fileID: 0}
  m_PrefabInstance: {fileID: 0}
  m_PrefabAsset: {fileID: 0}
  serializedVersion: 6
  m_Component:
  - component: {fileID: 375991772203818849}
  - component: {fileID: 4731393055801778870}
  m_Layer: 0
  m_Name: Village Props
  m_TagString: Untagged
  m_Icon: {fileID: 0}
  m_NavMeshLayer: 0
  m_StaticEditorFlags: 0
  m_IsActive: 1
--- !u!4 &375991772203818849
Transform:
  m_ObjectHideFlags: 0
  m_CorrespondingSourceObject: {fileID: 0}
  m_PrefabInstance: {fileID: 0}
  m_PrefabAsset: {fileID: 0}
  m_GameObject: {fileID: 3456333297034900796}
  m_LocalRotation: {x: 0, y: 0, z: 0, w: 1}
  m_LocalPosition: {x: 0, y: 0, z: 0}
  m_LocalScale: {x: 1, y: 1, z: 1}
  m_ConstrainProportionsScale: 0
  m_Children:
  - {fileID: 505276417690099069}
  m_Father: {fileID: 0}
  m_RootOrder: 0
  m_LocalEulerAnglesHint: {x: 0, y: 0, z: 0}
--- !u!156049354 &4731393055801778870
Grid:
  m_ObjectHideFlags: 0
  m_CorrespondingSourceObject: {fileID: 0}
  m_PrefabInstance: {fileID: 0}
  m_PrefabAsset: {fileID: 0}
  m_GameObject: {fileID: 3456333297034900796}
  m_Enabled: 1
  m_CellSize: {x: 4.78125, y: 5.03125, z: 0}
  m_CellGap: {x: 0, y: 0, z: 0}
  m_CellLayout: 0
  m_CellSwizzle: 0
--- !u!1 &3785321874815647063
GameObject:
  m_ObjectHideFlags: 0
  m_CorrespondingSourceObject: {fileID: 0}
  m_PrefabInstance: {fileID: 0}
  m_PrefabAsset: {fileID: 0}
  serializedVersion: 6
  m_Component:
  - component: {fileID: 505276417690099069}
  - component: {fileID: 8710172093059692880}
  - component: {fileID: 6636865291732580378}
  m_Layer: 0
  m_Name: Layer1
  m_TagString: Untagged
  m_Icon: {fileID: 0}
  m_NavMeshLayer: 0
  m_StaticEditorFlags: 0
  m_IsActive: 1
--- !u!4 &505276417690099069
Transform:
  m_ObjectHideFlags: 0
  m_CorrespondingSourceObject: {fileID: 0}
  m_PrefabInstance: {fileID: 0}
  m_PrefabAsset: {fileID: 0}
  m_GameObject: {fileID: 3785321874815647063}
  m_LocalRotation: {x: -0, y: -0, z: -0, w: 1}
  m_LocalPosition: {x: 0, y: 0, z: 0}
  m_LocalScale: {x: 1, y: 1, z: 1}
  m_ConstrainProportionsScale: 0
  m_Children: []
  m_Father: {fileID: 375991772203818849}
  m_RootOrder: 0
  m_LocalEulerAnglesHint: {x: 0, y: 0, z: 0}
--- !u!1839735485 &8710172093059692880
Tilemap:
  m_ObjectHideFlags: 0
  m_CorrespondingSourceObject: {fileID: 0}
  m_PrefabInstance: {fileID: 0}
  m_PrefabAsset: {fileID: 0}
  m_GameObject: {fileID: 3785321874815647063}
  m_Enabled: 1
  m_Tiles:
  - first: {x: -2, y: -9, z: 0}
    second:
      serializedVersion: 2
      m_TileIndex: 132
      m_TileSpriteIndex: 132
      m_TileMatrixIndex: 0
      m_TileColorIndex: 0
      m_TileObjectToInstantiateIndex: 65535
      dummyAlignment: 0
      m_AllTileFlags: 1073741825
  - first: {x: -1, y: -9, z: 0}
    second:
      serializedVersion: 2
      m_TileIndex: 133
      m_TileSpriteIndex: 133
      m_TileMatrixIndex: 0
      m_TileColorIndex: 0
      m_TileObjectToInstantiateIndex: 65535
      dummyAlignment: 0
      m_AllTileFlags: 1073741825
  - first: {x: 0, y: -9, z: 0}
    second:
      serializedVersion: 2
      m_TileIndex: 134
      m_TileSpriteIndex: 134
      m_TileMatrixIndex: 0
      m_TileColorIndex: 0
      m_TileObjectToInstantiateIndex: 65535
      dummyAlignment: 0
      m_AllTileFlags: 1073741825
  - first: {x: -2, y: -8, z: 0}
    second:
      serializedVersion: 2
      m_TileIndex: 120
      m_TileSpriteIndex: 120
      m_TileMatrixIndex: 0
      m_TileColorIndex: 0
      m_TileObjectToInstantiateIndex: 65535
      dummyAlignment: 0
      m_AllTileFlags: 1073741825
  - first: {x: -1, y: -8, z: 0}
    second:
      serializedVersion: 2
      m_TileIndex: 121
      m_TileSpriteIndex: 121
      m_TileMatrixIndex: 0
      m_TileColorIndex: 0
      m_TileObjectToInstantiateIndex: 65535
      dummyAlignment: 0
      m_AllTileFlags: 1073741825
  - first: {x: 0, y: -8, z: 0}
    second:
      serializedVersion: 2
      m_TileIndex: 122
      m_TileSpriteIndex: 122
      m_TileMatrixIndex: 0
      m_TileColorIndex: 0
      m_TileObjectToInstantiateIndex: 65535
      dummyAlignment: 0
      m_AllTileFlags: 1073741825
  - first: {x: 1, y: -8, z: 0}
    second:
      serializedVersion: 2
      m_TileIndex: 123
      m_TileSpriteIndex: 123
      m_TileMatrixIndex: 0
      m_TileColorIndex: 0
      m_TileObjectToInstantiateIndex: 65535
      dummyAlignment: 0
      m_AllTileFlags: 1073741825
  - first: {x: 2, y: -8, z: 0}
    second:
      serializedVersion: 2
      m_TileIndex: 124
      m_TileSpriteIndex: 124
      m_TileMatrixIndex: 0
      m_TileColorIndex: 0
      m_TileObjectToInstantiateIndex: 65535
      dummyAlignment: 0
      m_AllTileFlags: 1073741825
  - first: {x: 3, y: -8, z: 0}
    second:
      serializedVersion: 2
      m_TileIndex: 125
      m_TileSpriteIndex: 125
      m_TileMatrixIndex: 0
      m_TileColorIndex: 0
      m_TileObjectToInstantiateIndex: 65535
      dummyAlignment: 0
      m_AllTileFlags: 1073741825
  - first: {x: 4, y: -8, z: 0}
    second:
      serializedVersion: 2
      m_TileIndex: 126
      m_TileSpriteIndex: 126
      m_TileMatrixIndex: 0
      m_TileColorIndex: 0
      m_TileObjectToInstantiateIndex: 65535
      dummyAlignment: 0
      m_AllTileFlags: 1073741825
  - first: {x: 5, y: -8, z: 0}
    second:
      serializedVersion: 2
      m_TileIndex: 127
      m_TileSpriteIndex: 127
      m_TileMatrixIndex: 0
      m_TileColorIndex: 0
      m_TileObjectToInstantiateIndex: 65535
      dummyAlignment: 0
      m_AllTileFlags: 1073741825
  - first: {x: 6, y: -8, z: 0}
    second:
      serializedVersion: 2
      m_TileIndex: 128
      m_TileSpriteIndex: 128
      m_TileMatrixIndex: 0
      m_TileColorIndex: 0
      m_TileObjectToInstantiateIndex: 65535
      dummyAlignment: 0
      m_AllTileFlags: 1073741825
  - first: {x: 7, y: -8, z: 0}
    second:
      serializedVersion: 2
      m_TileIndex: 129
      m_TileSpriteIndex: 129
      m_TileMatrixIndex: 0
      m_TileColorIndex: 0
      m_TileObjectToInstantiateIndex: 65535
      dummyAlignment: 0
      m_AllTileFlags: 1073741825
  - first: {x: 8, y: -8, z: 0}
    second:
      serializedVersion: 2
      m_TileIndex: 130
      m_TileSpriteIndex: 130
      m_TileMatrixIndex: 0
      m_TileColorIndex: 0
      m_TileObjectToInstantiateIndex: 65535
      dummyAlignment: 0
      m_AllTileFlags: 1073741825
  - first: {x: 9, y: -8, z: 0}
    second:
      serializedVersion: 2
      m_TileIndex: 131
      m_TileSpriteIndex: 131
      m_TileMatrixIndex: 0
      m_TileColorIndex: 0
      m_TileObjectToInstantiateIndex: 65535
      dummyAlignment: 0
      m_AllTileFlags: 1073741825
  - first: {x: -2, y: -7, z: 0}
    second:
      serializedVersion: 2
      m_TileIndex: 108
      m_TileSpriteIndex: 108
      m_TileMatrixIndex: 0
      m_TileColorIndex: 0
      m_TileObjectToInstantiateIndex: 65535
      dummyAlignment: 0
      m_AllTileFlags: 1073741825
  - first: {x: -1, y: -7, z: 0}
    second:
      serializedVersion: 2
      m_TileIndex: 109
      m_TileSpriteIndex: 109
      m_TileMatrixIndex: 0
      m_TileColorIndex: 0
      m_TileObjectToInstantiateIndex: 65535
      dummyAlignment: 0
      m_AllTileFlags: 1073741825
  - first: {x: 0, y: -7, z: 0}
    second:
      serializedVersion: 2
      m_TileIndex: 110
      m_TileSpriteIndex: 110
      m_TileMatrixIndex: 0
      m_TileColorIndex: 0
      m_TileObjectToInstantiateIndex: 65535
      dummyAlignment: 0
      m_AllTileFlags: 1073741825
  - first: {x: 1, y: -7, z: 0}
    second:
      serializedVersion: 2
      m_TileIndex: 111
      m_TileSpriteIndex: 111
      m_TileMatrixIndex: 0
      m_TileColorIndex: 0
      m_TileObjectToInstantiateIndex: 65535
      dummyAlignment: 0
      m_AllTileFlags: 1073741825
  - first: {x: 2, y: -7, z: 0}
    second:
      serializedVersion: 2
      m_TileIndex: 112
      m_TileSpriteIndex: 112
      m_TileMatrixIndex: 0
      m_TileColorIndex: 0
      m_TileObjectToInstantiateIndex: 65535
      dummyAlignment: 0
      m_AllTileFlags: 1073741825
  - first: {x: 3, y: -7, z: 0}
    second:
      serializedVersion: 2
      m_TileIndex: 113
      m_TileSpriteIndex: 113
      m_TileMatrixIndex: 0
      m_TileColorIndex: 0
      m_TileObjectToInstantiateIndex: 65535
      dummyAlignment: 0
      m_AllTileFlags: 1073741825
  - first: {x: 4, y: -7, z: 0}
    second:
      serializedVersion: 2
      m_TileIndex: 114
      m_TileSpriteIndex: 114
      m_TileMatrixIndex: 0
      m_TileColorIndex: 0
      m_TileObjectToInstantiateIndex: 65535
      dummyAlignment: 0
      m_AllTileFlags: 1073741825
  - first: {x: 5, y: -7, z: 0}
    second:
      serializedVersion: 2
      m_TileIndex: 115
      m_TileSpriteIndex: 115
      m_TileMatrixIndex: 0
      m_TileColorIndex: 0
      m_TileObjectToInstantiateIndex: 65535
      dummyAlignment: 0
      m_AllTileFlags: 1073741825
  - first: {x: 6, y: -7, z: 0}
    second:
      serializedVersion: 2
      m_TileIndex: 116
      m_TileSpriteIndex: 116
      m_TileMatrixIndex: 0
      m_TileColorIndex: 0
      m_TileObjectToInstantiateIndex: 65535
      dummyAlignment: 0
      m_AllTileFlags: 1073741825
  - first: {x: 7, y: -7, z: 0}
    second:
      serializedVersion: 2
      m_TileIndex: 117
      m_TileSpriteIndex: 117
      m_TileMatrixIndex: 0
      m_TileColorIndex: 0
      m_TileObjectToInstantiateIndex: 65535
      dummyAlignment: 0
      m_AllTileFlags: 1073741825
  - first: {x: 8, y: -7, z: 0}
    second:
      serializedVersion: 2
      m_TileIndex: 118
      m_TileSpriteIndex: 118
      m_TileMatrixIndex: 0
      m_TileColorIndex: 0
      m_TileObjectToInstantiateIndex: 65535
      dummyAlignment: 0
      m_AllTileFlags: 1073741825
  - first: {x: 9, y: -7, z: 0}
    second:
      serializedVersion: 2
      m_TileIndex: 119
      m_TileSpriteIndex: 119
      m_TileMatrixIndex: 0
      m_TileColorIndex: 0
      m_TileObjectToInstantiateIndex: 65535
      dummyAlignment: 0
      m_AllTileFlags: 1073741825
  - first: {x: -2, y: -6, z: 0}
    second:
      serializedVersion: 2
      m_TileIndex: 96
      m_TileSpriteIndex: 96
      m_TileMatrixIndex: 0
      m_TileColorIndex: 0
      m_TileObjectToInstantiateIndex: 65535
      dummyAlignment: 0
      m_AllTileFlags: 1073741825
  - first: {x: -1, y: -6, z: 0}
    second:
      serializedVersion: 2
      m_TileIndex: 97
      m_TileSpriteIndex: 97
      m_TileMatrixIndex: 0
      m_TileColorIndex: 0
      m_TileObjectToInstantiateIndex: 65535
      dummyAlignment: 0
      m_AllTileFlags: 1073741825
  - first: {x: 0, y: -6, z: 0}
    second:
      serializedVersion: 2
      m_TileIndex: 98
      m_TileSpriteIndex: 98
      m_TileMatrixIndex: 0
      m_TileColorIndex: 0
      m_TileObjectToInstantiateIndex: 65535
      dummyAlignment: 0
      m_AllTileFlags: 1073741825
  - first: {x: 1, y: -6, z: 0}
    second:
      serializedVersion: 2
      m_TileIndex: 99
      m_TileSpriteIndex: 99
      m_TileMatrixIndex: 0
      m_TileColorIndex: 0
      m_TileObjectToInstantiateIndex: 65535
      dummyAlignment: 0
      m_AllTileFlags: 1073741825
  - first: {x: 2, y: -6, z: 0}
    second:
      serializedVersion: 2
      m_TileIndex: 100
      m_TileSpriteIndex: 100
      m_TileMatrixIndex: 0
      m_TileColorIndex: 0
      m_TileObjectToInstantiateIndex: 65535
      dummyAlignment: 0
      m_AllTileFlags: 1073741825
  - first: {x: 3, y: -6, z: 0}
    second:
      serializedVersion: 2
      m_TileIndex: 101
      m_TileSpriteIndex: 101
      m_TileMatrixIndex: 0
      m_TileColorIndex: 0
      m_TileObjectToInstantiateIndex: 65535
      dummyAlignment: 0
      m_AllTileFlags: 1073741825
  - first: {x: 4, y: -6, z: 0}
    second:
      serializedVersion: 2
      m_TileIndex: 102
      m_TileSpriteIndex: 102
      m_TileMatrixIndex: 0
      m_TileColorIndex: 0
      m_TileObjectToInstantiateIndex: 65535
      dummyAlignment: 0
      m_AllTileFlags: 1073741825
  - first: {x: 5, y: -6, z: 0}
    second:
      serializedVersion: 2
      m_TileIndex: 103
      m_TileSpriteIndex: 103
      m_TileMatrixIndex: 0
      m_TileColorIndex: 0
      m_TileObjectToInstantiateIndex: 65535
      dummyAlignment: 0
      m_AllTileFlags: 1073741825
  - first: {x: 6, y: -6, z: 0}
    second:
      serializedVersion: 2
      m_TileIndex: 104
      m_TileSpriteIndex: 104
      m_TileMatrixIndex: 0
      m_TileColorIndex: 0
      m_TileObjectToInstantiateIndex: 65535
      dummyAlignment: 0
      m_AllTileFlags: 1073741825
  - first: {x: 7, y: -6, z: 0}
    second:
      serializedVersion: 2
      m_TileIndex: 105
      m_TileSpriteIndex: 105
      m_TileMatrixIndex: 0
      m_TileColorIndex: 0
      m_TileObjectToInstantiateIndex: 65535
      dummyAlignment: 0
      m_AllTileFlags: 1073741825
  - first: {x: 8, y: -6, z: 0}
    second:
      serializedVersion: 2
      m_TileIndex: 106
      m_TileSpriteIndex: 106
      m_TileMatrixIndex: 0
      m_TileColorIndex: 0
      m_TileObjectToInstantiateIndex: 65535
      dummyAlignment: 0
      m_AllTileFlags: 1073741825
  - first: {x: 9, y: -6, z: 0}
    second:
      serializedVersion: 2
      m_TileIndex: 107
      m_TileSpriteIndex: 107
      m_TileMatrixIndex: 0
      m_TileColorIndex: 0
      m_TileObjectToInstantiateIndex: 65535
      dummyAlignment: 0
      m_AllTileFlags: 1073741825
  - first: {x: -2, y: -5, z: 0}
    second:
      serializedVersion: 2
      m_TileIndex: 84
      m_TileSpriteIndex: 84
      m_TileMatrixIndex: 0
      m_TileColorIndex: 0
      m_TileObjectToInstantiateIndex: 65535
      dummyAlignment: 0
      m_AllTileFlags: 1073741825
  - first: {x: -1, y: -5, z: 0}
    second:
      serializedVersion: 2
      m_TileIndex: 85
      m_TileSpriteIndex: 85
      m_TileMatrixIndex: 0
      m_TileColorIndex: 0
      m_TileObjectToInstantiateIndex: 65535
      dummyAlignment: 0
      m_AllTileFlags: 1073741825
  - first: {x: 0, y: -5, z: 0}
    second:
      serializedVersion: 2
      m_TileIndex: 86
      m_TileSpriteIndex: 86
      m_TileMatrixIndex: 0
      m_TileColorIndex: 0
      m_TileObjectToInstantiateIndex: 65535
      dummyAlignment: 0
      m_AllTileFlags: 1073741825
  - first: {x: 1, y: -5, z: 0}
    second:
      serializedVersion: 2
      m_TileIndex: 87
      m_TileSpriteIndex: 87
      m_TileMatrixIndex: 0
      m_TileColorIndex: 0
      m_TileObjectToInstantiateIndex: 65535
      dummyAlignment: 0
      m_AllTileFlags: 1073741825
  - first: {x: 2, y: -5, z: 0}
    second:
      serializedVersion: 2
      m_TileIndex: 88
      m_TileSpriteIndex: 88
      m_TileMatrixIndex: 0
      m_TileColorIndex: 0
      m_TileObjectToInstantiateIndex: 65535
      dummyAlignment: 0
      m_AllTileFlags: 1073741825
  - first: {x: 3, y: -5, z: 0}
    second:
      serializedVersion: 2
      m_TileIndex: 89
      m_TileSpriteIndex: 89
      m_TileMatrixIndex: 0
      m_TileColorIndex: 0
      m_TileObjectToInstantiateIndex: 65535
      dummyAlignment: 0
      m_AllTileFlags: 1073741825
  - first: {x: 4, y: -5, z: 0}
    second:
      serializedVersion: 2
      m_TileIndex: 90
      m_TileSpriteIndex: 90
      m_TileMatrixIndex: 0
      m_TileColorIndex: 0
      m_TileObjectToInstantiateIndex: 65535
      dummyAlignment: 0
      m_AllTileFlags: 1073741825
  - first: {x: 5, y: -5, z: 0}
    second:
      serializedVersion: 2
      m_TileIndex: 91
      m_TileSpriteIndex: 91
      m_TileMatrixIndex: 0
      m_TileColorIndex: 0
      m_TileObjectToInstantiateIndex: 65535
      dummyAlignment: 0
      m_AllTileFlags: 1073741825
  - first: {x: 6, y: -5, z: 0}
    second:
      serializedVersion: 2
      m_TileIndex: 92
      m_TileSpriteIndex: 92
      m_TileMatrixIndex: 0
      m_TileColorIndex: 0
      m_TileObjectToInstantiateIndex: 65535
      dummyAlignment: 0
      m_AllTileFlags: 1073741825
  - first: {x: 7, y: -5, z: 0}
    second:
      serializedVersion: 2
      m_TileIndex: 93
      m_TileSpriteIndex: 93
      m_TileMatrixIndex: 0
      m_TileColorIndex: 0
      m_TileObjectToInstantiateIndex: 65535
      dummyAlignment: 0
      m_AllTileFlags: 1073741825
  - first: {x: 8, y: -5, z: 0}
    second:
      serializedVersion: 2
      m_TileIndex: 94
      m_TileSpriteIndex: 94
      m_TileMatrixIndex: 0
      m_TileColorIndex: 0
      m_TileObjectToInstantiateIndex: 65535
      dummyAlignment: 0
      m_AllTileFlags: 1073741825
  - first: {x: 9, y: -5, z: 0}
    second:
      serializedVersion: 2
      m_TileIndex: 95
      m_TileSpriteIndex: 95
      m_TileMatrixIndex: 0
      m_TileColorIndex: 0
      m_TileObjectToInstantiateIndex: 65535
      dummyAlignment: 0
      m_AllTileFlags: 1073741825
  - first: {x: -2, y: -4, z: 0}
    second:
      serializedVersion: 2
      m_TileIndex: 72
      m_TileSpriteIndex: 72
      m_TileMatrixIndex: 0
      m_TileColorIndex: 0
      m_TileObjectToInstantiateIndex: 65535
      dummyAlignment: 0
      m_AllTileFlags: 1073741825
  - first: {x: -1, y: -4, z: 0}
    second:
      serializedVersion: 2
      m_TileIndex: 73
      m_TileSpriteIndex: 73
      m_TileMatrixIndex: 0
      m_TileColorIndex: 0
      m_TileObjectToInstantiateIndex: 65535
      dummyAlignment: 0
      m_AllTileFlags: 1073741825
  - first: {x: 0, y: -4, z: 0}
    second:
      serializedVersion: 2
      m_TileIndex: 74
      m_TileSpriteIndex: 74
      m_TileMatrixIndex: 0
      m_TileColorIndex: 0
      m_TileObjectToInstantiateIndex: 65535
      dummyAlignment: 0
      m_AllTileFlags: 1073741825
  - first: {x: 1, y: -4, z: 0}
    second:
      serializedVersion: 2
      m_TileIndex: 75
      m_TileSpriteIndex: 75
      m_TileMatrixIndex: 0
      m_TileColorIndex: 0
      m_TileObjectToInstantiateIndex: 65535
      dummyAlignment: 0
      m_AllTileFlags: 1073741825
  - first: {x: 2, y: -4, z: 0}
    second:
      serializedVersion: 2
      m_TileIndex: 76
      m_TileSpriteIndex: 76
      m_TileMatrixIndex: 0
      m_TileColorIndex: 0
      m_TileObjectToInstantiateIndex: 65535
      dummyAlignment: 0
      m_AllTileFlags: 1073741825
  - first: {x: 3, y: -4, z: 0}
    second:
      serializedVersion: 2
      m_TileIndex: 77
      m_TileSpriteIndex: 77
      m_TileMatrixIndex: 0
      m_TileColorIndex: 0
      m_TileObjectToInstantiateIndex: 65535
      dummyAlignment: 0
      m_AllTileFlags: 1073741825
  - first: {x: 4, y: -4, z: 0}
    second:
      serializedVersion: 2
      m_TileIndex: 78
      m_TileSpriteIndex: 78
      m_TileMatrixIndex: 0
      m_TileColorIndex: 0
      m_TileObjectToInstantiateIndex: 65535
      dummyAlignment: 0
      m_AllTileFlags: 1073741825
  - first: {x: 5, y: -4, z: 0}
    second:
      serializedVersion: 2
      m_TileIndex: 79
      m_TileSpriteIndex: 79
      m_TileMatrixIndex: 0
      m_TileColorIndex: 0
      m_TileObjectToInstantiateIndex: 65535
      dummyAlignment: 0
      m_AllTileFlags: 1073741825
  - first: {x: 6, y: -4, z: 0}
    second:
      serializedVersion: 2
      m_TileIndex: 80
      m_TileSpriteIndex: 80
      m_TileMatrixIndex: 0
      m_TileColorIndex: 0
      m_TileObjectToInstantiateIndex: 65535
      dummyAlignment: 0
      m_AllTileFlags: 1073741825
  - first: {x: 7, y: -4, z: 0}
    second:
      serializedVersion: 2
      m_TileIndex: 81
      m_TileSpriteIndex: 81
      m_TileMatrixIndex: 0
      m_TileColorIndex: 0
      m_TileObjectToInstantiateIndex: 65535
      dummyAlignment: 0
      m_AllTileFlags: 1073741825
  - first: {x: 8, y: -4, z: 0}
    second:
      serializedVersion: 2
      m_TileIndex: 82
      m_TileSpriteIndex: 82
      m_TileMatrixIndex: 0
      m_TileColorIndex: 0
      m_TileObjectToInstantiateIndex: 65535
      dummyAlignment: 0
      m_AllTileFlags: 1073741825
  - first: {x: 9, y: -4, z: 0}
    second:
      serializedVersion: 2
      m_TileIndex: 83
      m_TileSpriteIndex: 83
      m_TileMatrixIndex: 0
      m_TileColorIndex: 0
      m_TileObjectToInstantiateIndex: 65535
      dummyAlignment: 0
      m_AllTileFlags: 1073741825
  - first: {x: -2, y: -3, z: 0}
    second:
      serializedVersion: 2
      m_TileIndex: 60
      m_TileSpriteIndex: 60
      m_TileMatrixIndex: 0
      m_TileColorIndex: 0
      m_TileObjectToInstantiateIndex: 65535
      dummyAlignment: 0
      m_AllTileFlags: 1073741825
  - first: {x: -1, y: -3, z: 0}
    second:
      serializedVersion: 2
      m_TileIndex: 61
      m_TileSpriteIndex: 61
      m_TileMatrixIndex: 0
      m_TileColorIndex: 0
      m_TileObjectToInstantiateIndex: 65535
      dummyAlignment: 0
      m_AllTileFlags: 1073741825
  - first: {x: 0, y: -3, z: 0}
    second:
      serializedVersion: 2
      m_TileIndex: 62
      m_TileSpriteIndex: 62
      m_TileMatrixIndex: 0
      m_TileColorIndex: 0
      m_TileObjectToInstantiateIndex: 65535
      dummyAlignment: 0
      m_AllTileFlags: 1073741825
  - first: {x: 1, y: -3, z: 0}
    second:
      serializedVersion: 2
      m_TileIndex: 63
      m_TileSpriteIndex: 63
      m_TileMatrixIndex: 0
      m_TileColorIndex: 0
      m_TileObjectToInstantiateIndex: 65535
      dummyAlignment: 0
      m_AllTileFlags: 1073741825
  - first: {x: 2, y: -3, z: 0}
    second:
      serializedVersion: 2
      m_TileIndex: 64
      m_TileSpriteIndex: 64
      m_TileMatrixIndex: 0
      m_TileColorIndex: 0
      m_TileObjectToInstantiateIndex: 65535
      dummyAlignment: 0
      m_AllTileFlags: 1073741825
  - first: {x: 3, y: -3, z: 0}
    second:
      serializedVersion: 2
      m_TileIndex: 65
      m_TileSpriteIndex: 65
      m_TileMatrixIndex: 0
      m_TileColorIndex: 0
      m_TileObjectToInstantiateIndex: 65535
      dummyAlignment: 0
      m_AllTileFlags: 1073741825
  - first: {x: 4, y: -3, z: 0}
    second:
      serializedVersion: 2
      m_TileIndex: 66
      m_TileSpriteIndex: 66
      m_TileMatrixIndex: 0
      m_TileColorIndex: 0
      m_TileObjectToInstantiateIndex: 65535
      dummyAlignment: 0
      m_AllTileFlags: 1073741825
  - first: {x: 5, y: -3, z: 0}
    second:
      serializedVersion: 2
      m_TileIndex: 67
      m_TileSpriteIndex: 67
      m_TileMatrixIndex: 0
      m_TileColorIndex: 0
      m_TileObjectToInstantiateIndex: 65535
      dummyAlignment: 0
      m_AllTileFlags: 1073741825
  - first: {x: 6, y: -3, z: 0}
    second:
      serializedVersion: 2
      m_TileIndex: 68
      m_TileSpriteIndex: 68
      m_TileMatrixIndex: 0
      m_TileColorIndex: 0
      m_TileObjectToInstantiateIndex: 65535
      dummyAlignment: 0
      m_AllTileFlags: 1073741825
  - first: {x: 7, y: -3, z: 0}
    second:
      serializedVersion: 2
      m_TileIndex: 69
      m_TileSpriteIndex: 69
      m_TileMatrixIndex: 0
      m_TileColorIndex: 0
      m_TileObjectToInstantiateIndex: 65535
      dummyAlignment: 0
      m_AllTileFlags: 1073741825
  - first: {x: 8, y: -3, z: 0}
    second:
      serializedVersion: 2
      m_TileIndex: 70
      m_TileSpriteIndex: 70
      m_TileMatrixIndex: 0
      m_TileColorIndex: 0
      m_TileObjectToInstantiateIndex: 65535
      dummyAlignment: 0
      m_AllTileFlags: 1073741825
  - first: {x: 9, y: -3, z: 0}
    second:
      serializedVersion: 2
      m_TileIndex: 71
      m_TileSpriteIndex: 71
      m_TileMatrixIndex: 0
      m_TileColorIndex: 0
      m_TileObjectToInstantiateIndex: 65535
      dummyAlignment: 0
      m_AllTileFlags: 1073741825
  - first: {x: -2, y: -2, z: 0}
    second:
      serializedVersion: 2
      m_TileIndex: 48
      m_TileSpriteIndex: 48
      m_TileMatrixIndex: 0
      m_TileColorIndex: 0
      m_TileObjectToInstantiateIndex: 65535
      dummyAlignment: 0
      m_AllTileFlags: 1073741825
  - first: {x: -1, y: -2, z: 0}
    second:
      serializedVersion: 2
      m_TileIndex: 49
      m_TileSpriteIndex: 49
      m_TileMatrixIndex: 0
      m_TileColorIndex: 0
      m_TileObjectToInstantiateIndex: 65535
      dummyAlignment: 0
      m_AllTileFlags: 1073741825
  - first: {x: 0, y: -2, z: 0}
    second:
      serializedVersion: 2
      m_TileIndex: 50
      m_TileSpriteIndex: 50
      m_TileMatrixIndex: 0
      m_TileColorIndex: 0
      m_TileObjectToInstantiateIndex: 65535
      dummyAlignment: 0
      m_AllTileFlags: 1073741825
  - first: {x: 1, y: -2, z: 0}
    second:
      serializedVersion: 2
      m_TileIndex: 51
      m_TileSpriteIndex: 51
      m_TileMatrixIndex: 0
      m_TileColorIndex: 0
      m_TileObjectToInstantiateIndex: 65535
      dummyAlignment: 0
      m_AllTileFlags: 1073741825
  - first: {x: 2, y: -2, z: 0}
    second:
      serializedVersion: 2
      m_TileIndex: 52
      m_TileSpriteIndex: 52
      m_TileMatrixIndex: 0
      m_TileColorIndex: 0
      m_TileObjectToInstantiateIndex: 65535
      dummyAlignment: 0
      m_AllTileFlags: 1073741825
  - first: {x: 3, y: -2, z: 0}
    second:
      serializedVersion: 2
      m_TileIndex: 53
      m_TileSpriteIndex: 53
      m_TileMatrixIndex: 0
      m_TileColorIndex: 0
      m_TileObjectToInstantiateIndex: 65535
      dummyAlignment: 0
      m_AllTileFlags: 1073741825
  - first: {x: 4, y: -2, z: 0}
    second:
      serializedVersion: 2
      m_TileIndex: 54
      m_TileSpriteIndex: 54
      m_TileMatrixIndex: 0
      m_TileColorIndex: 0
      m_TileObjectToInstantiateIndex: 65535
      dummyAlignment: 0
      m_AllTileFlags: 1073741825
  - first: {x: 5, y: -2, z: 0}
    second:
      serializedVersion: 2
      m_TileIndex: 55
      m_TileSpriteIndex: 55
      m_TileMatrixIndex: 0
      m_TileColorIndex: 0
      m_TileObjectToInstantiateIndex: 65535
      dummyAlignment: 0
      m_AllTileFlags: 1073741825
  - first: {x: 6, y: -2, z: 0}
    second:
      serializedVersion: 2
      m_TileIndex: 56
      m_TileSpriteIndex: 56
      m_TileMatrixIndex: 0
      m_TileColorIndex: 0
      m_TileObjectToInstantiateIndex: 65535
      dummyAlignment: 0
      m_AllTileFlags: 1073741825
  - first: {x: 7, y: -2, z: 0}
    second:
      serializedVersion: 2
      m_TileIndex: 57
      m_TileSpriteIndex: 57
      m_TileMatrixIndex: 0
      m_TileColorIndex: 0
      m_TileObjectToInstantiateIndex: 65535
      dummyAlignment: 0
      m_AllTileFlags: 1073741825
  - first: {x: 8, y: -2, z: 0}
    second:
      serializedVersion: 2
      m_TileIndex: 58
      m_TileSpriteIndex: 58
      m_TileMatrixIndex: 0
      m_TileColorIndex: 0
      m_TileObjectToInstantiateIndex: 65535
      dummyAlignment: 0
      m_AllTileFlags: 1073741825
  - first: {x: 9, y: -2, z: 0}
    second:
      serializedVersion: 2
      m_TileIndex: 59
      m_TileSpriteIndex: 59
      m_TileMatrixIndex: 0
      m_TileColorIndex: 0
      m_TileObjectToInstantiateIndex: 65535
      dummyAlignment: 0
      m_AllTileFlags: 1073741825
  - first: {x: -2, y: -1, z: 0}
    second:
      serializedVersion: 2
      m_TileIndex: 36
      m_TileSpriteIndex: 36
      m_TileMatrixIndex: 0
      m_TileColorIndex: 0
      m_TileObjectToInstantiateIndex: 65535
      dummyAlignment: 0
      m_AllTileFlags: 1073741825
  - first: {x: -1, y: -1, z: 0}
    second:
      serializedVersion: 2
      m_TileIndex: 37
      m_TileSpriteIndex: 37
      m_TileMatrixIndex: 0
      m_TileColorIndex: 0
      m_TileObjectToInstantiateIndex: 65535
      dummyAlignment: 0
      m_AllTileFlags: 1073741825
  - first: {x: 0, y: -1, z: 0}
    second:
      serializedVersion: 2
      m_TileIndex: 38
      m_TileSpriteIndex: 38
      m_TileMatrixIndex: 0
      m_TileColorIndex: 0
      m_TileObjectToInstantiateIndex: 65535
      dummyAlignment: 0
      m_AllTileFlags: 1073741825
  - first: {x: 1, y: -1, z: 0}
    second:
      serializedVersion: 2
      m_TileIndex: 39
      m_TileSpriteIndex: 39
      m_TileMatrixIndex: 0
      m_TileColorIndex: 0
      m_TileObjectToInstantiateIndex: 65535
      dummyAlignment: 0
      m_AllTileFlags: 1073741825
  - first: {x: 2, y: -1, z: 0}
    second:
      serializedVersion: 2
      m_TileIndex: 40
      m_TileSpriteIndex: 40
      m_TileMatrixIndex: 0
      m_TileColorIndex: 0
      m_TileObjectToInstantiateIndex: 65535
      dummyAlignment: 0
      m_AllTileFlags: 1073741825
  - first: {x: 3, y: -1, z: 0}
    second:
      serializedVersion: 2
      m_TileIndex: 41
      m_TileSpriteIndex: 41
      m_TileMatrixIndex: 0
      m_TileColorIndex: 0
      m_TileObjectToInstantiateIndex: 65535
      dummyAlignment: 0
      m_AllTileFlags: 1073741825
  - first: {x: 4, y: -1, z: 0}
    second:
      serializedVersion: 2
      m_TileIndex: 42
      m_TileSpriteIndex: 42
      m_TileMatrixIndex: 0
      m_TileColorIndex: 0
      m_TileObjectToInstantiateIndex: 65535
      dummyAlignment: 0
      m_AllTileFlags: 1073741825
  - first: {x: 5, y: -1, z: 0}
    second:
      serializedVersion: 2
      m_TileIndex: 43
      m_TileSpriteIndex: 43
      m_TileMatrixIndex: 0
      m_TileColorIndex: 0
      m_TileObjectToInstantiateIndex: 65535
      dummyAlignment: 0
      m_AllTileFlags: 1073741825
  - first: {x: 6, y: -1, z: 0}
    second:
      serializedVersion: 2
      m_TileIndex: 44
      m_TileSpriteIndex: 44
      m_TileMatrixIndex: 0
      m_TileColorIndex: 0
      m_TileObjectToInstantiateIndex: 65535
      dummyAlignment: 0
      m_AllTileFlags: 1073741825
  - first: {x: 7, y: -1, z: 0}
    second:
      serializedVersion: 2
      m_TileIndex: 45
      m_TileSpriteIndex: 45
      m_TileMatrixIndex: 0
      m_TileColorIndex: 0
      m_TileObjectToInstantiateIndex: 65535
      dummyAlignment: 0
      m_AllTileFlags: 1073741825
  - first: {x: 8, y: -1, z: 0}
    second:
      serializedVersion: 2
      m_TileIndex: 46
      m_TileSpriteIndex: 46
      m_TileMatrixIndex: 0
      m_TileColorIndex: 0
      m_TileObjectToInstantiateIndex: 65535
      dummyAlignment: 0
      m_AllTileFlags: 1073741825
  - first: {x: 9, y: -1, z: 0}
    second:
      serializedVersion: 2
      m_TileIndex: 47
      m_TileSpriteIndex: 47
      m_TileMatrixIndex: 0
      m_TileColorIndex: 0
      m_TileObjectToInstantiateIndex: 65535
      dummyAlignment: 0
      m_AllTileFlags: 1073741825
  - first: {x: -2, y: 0, z: 0}
    second:
      serializedVersion: 2
      m_TileIndex: 24
      m_TileSpriteIndex: 24
      m_TileMatrixIndex: 0
      m_TileColorIndex: 0
      m_TileObjectToInstantiateIndex: 65535
      dummyAlignment: 0
      m_AllTileFlags: 1073741825
  - first: {x: -1, y: 0, z: 0}
    second:
      serializedVersion: 2
      m_TileIndex: 25
      m_TileSpriteIndex: 25
      m_TileMatrixIndex: 0
      m_TileColorIndex: 0
      m_TileObjectToInstantiateIndex: 65535
      dummyAlignment: 0
      m_AllTileFlags: 1073741825
  - first: {x: 0, y: 0, z: 0}
    second:
      serializedVersion: 2
      m_TileIndex: 26
      m_TileSpriteIndex: 26
      m_TileMatrixIndex: 0
      m_TileColorIndex: 0
      m_TileObjectToInstantiateIndex: 65535
      dummyAlignment: 0
      m_AllTileFlags: 1073741825
  - first: {x: 1, y: 0, z: 0}
    second:
      serializedVersion: 2
      m_TileIndex: 27
      m_TileSpriteIndex: 27
      m_TileMatrixIndex: 0
      m_TileColorIndex: 0
      m_TileObjectToInstantiateIndex: 65535
      dummyAlignment: 0
      m_AllTileFlags: 1073741825
  - first: {x: 2, y: 0, z: 0}
    second:
      serializedVersion: 2
      m_TileIndex: 28
      m_TileSpriteIndex: 28
      m_TileMatrixIndex: 0
      m_TileColorIndex: 0
      m_TileObjectToInstantiateIndex: 65535
      dummyAlignment: 0
      m_AllTileFlags: 1073741825
  - first: {x: 3, y: 0, z: 0}
    second:
      serializedVersion: 2
      m_TileIndex: 29
      m_TileSpriteIndex: 29
      m_TileMatrixIndex: 0
      m_TileColorIndex: 0
      m_TileObjectToInstantiateIndex: 65535
      dummyAlignment: 0
      m_AllTileFlags: 1073741825
  - first: {x: 4, y: 0, z: 0}
    second:
      serializedVersion: 2
      m_TileIndex: 30
      m_TileSpriteIndex: 30
      m_TileMatrixIndex: 0
      m_TileColorIndex: 0
      m_TileObjectToInstantiateIndex: 65535
      dummyAlignment: 0
      m_AllTileFlags: 1073741825
  - first: {x: 5, y: 0, z: 0}
    second:
      serializedVersion: 2
      m_TileIndex: 31
      m_TileSpriteIndex: 31
      m_TileMatrixIndex: 0
      m_TileColorIndex: 0
      m_TileObjectToInstantiateIndex: 65535
      dummyAlignment: 0
      m_AllTileFlags: 1073741825
  - first: {x: 6, y: 0, z: 0}
    second:
      serializedVersion: 2
      m_TileIndex: 32
      m_TileSpriteIndex: 32
      m_TileMatrixIndex: 0
      m_TileColorIndex: 0
      m_TileObjectToInstantiateIndex: 65535
      dummyAlignment: 0
      m_AllTileFlags: 1073741825
  - first: {x: 7, y: 0, z: 0}
    second:
      serializedVersion: 2
      m_TileIndex: 33
      m_TileSpriteIndex: 33
      m_TileMatrixIndex: 0
      m_TileColorIndex: 0
      m_TileObjectToInstantiateIndex: 65535
      dummyAlignment: 0
      m_AllTileFlags: 1073741825
  - first: {x: 8, y: 0, z: 0}
    second:
      serializedVersion: 2
      m_TileIndex: 34
      m_TileSpriteIndex: 34
      m_TileMatrixIndex: 0
      m_TileColorIndex: 0
      m_TileObjectToInstantiateIndex: 65535
      dummyAlignment: 0
      m_AllTileFlags: 1073741825
  - first: {x: 9, y: 0, z: 0}
    second:
      serializedVersion: 2
      m_TileIndex: 35
      m_TileSpriteIndex: 35
      m_TileMatrixIndex: 0
      m_TileColorIndex: 0
      m_TileObjectToInstantiateIndex: 65535
      dummyAlignment: 0
      m_AllTileFlags: 1073741825
  - first: {x: -2, y: 1, z: 0}
    second:
      serializedVersion: 2
      m_TileIndex: 12
      m_TileSpriteIndex: 12
      m_TileMatrixIndex: 0
      m_TileColorIndex: 0
      m_TileObjectToInstantiateIndex: 65535
      dummyAlignment: 0
      m_AllTileFlags: 1073741825
  - first: {x: -1, y: 1, z: 0}
    second:
      serializedVersion: 2
      m_TileIndex: 13
      m_TileSpriteIndex: 13
      m_TileMatrixIndex: 0
      m_TileColorIndex: 0
      m_TileObjectToInstantiateIndex: 65535
      dummyAlignment: 0
      m_AllTileFlags: 1073741825
  - first: {x: 0, y: 1, z: 0}
    second:
      serializedVersion: 2
      m_TileIndex: 14
      m_TileSpriteIndex: 14
      m_TileMatrixIndex: 0
      m_TileColorIndex: 0
      m_TileObjectToInstantiateIndex: 65535
      dummyAlignment: 0
      m_AllTileFlags: 1073741825
  - first: {x: 1, y: 1, z: 0}
    second:
      serializedVersion: 2
      m_TileIndex: 15
      m_TileSpriteIndex: 15
      m_TileMatrixIndex: 0
      m_TileColorIndex: 0
      m_TileObjectToInstantiateIndex: 65535
      dummyAlignment: 0
      m_AllTileFlags: 1073741825
  - first: {x: 2, y: 1, z: 0}
    second:
      serializedVersion: 2
      m_TileIndex: 16
      m_TileSpriteIndex: 16
      m_TileMatrixIndex: 0
      m_TileColorIndex: 0
      m_TileObjectToInstantiateIndex: 65535
      dummyAlignment: 0
      m_AllTileFlags: 1073741825
  - first: {x: 3, y: 1, z: 0}
    second:
      serializedVersion: 2
      m_TileIndex: 17
      m_TileSpriteIndex: 17
      m_TileMatrixIndex: 0
      m_TileColorIndex: 0
      m_TileObjectToInstantiateIndex: 65535
      dummyAlignment: 0
      m_AllTileFlags: 1073741825
  - first: {x: 4, y: 1, z: 0}
    second:
      serializedVersion: 2
      m_TileIndex: 18
      m_TileSpriteIndex: 18
      m_TileMatrixIndex: 0
      m_TileColorIndex: 0
      m_TileObjectToInstantiateIndex: 65535
      dummyAlignment: 0
      m_AllTileFlags: 1073741825
  - first: {x: 5, y: 1, z: 0}
    second:
      serializedVersion: 2
      m_TileIndex: 19
      m_TileSpriteIndex: 19
      m_TileMatrixIndex: 0
      m_TileColorIndex: 0
      m_TileObjectToInstantiateIndex: 65535
      dummyAlignment: 0
      m_AllTileFlags: 1073741825
  - first: {x: 6, y: 1, z: 0}
    second:
      serializedVersion: 2
      m_TileIndex: 20
      m_TileSpriteIndex: 20
      m_TileMatrixIndex: 0
      m_TileColorIndex: 0
      m_TileObjectToInstantiateIndex: 65535
      dummyAlignment: 0
      m_AllTileFlags: 1073741825
  - first: {x: 7, y: 1, z: 0}
    second:
      serializedVersion: 2
      m_TileIndex: 21
      m_TileSpriteIndex: 21
      m_TileMatrixIndex: 0
      m_TileColorIndex: 0
      m_TileObjectToInstantiateIndex: 65535
      dummyAlignment: 0
      m_AllTileFlags: 1073741825
  - first: {x: 8, y: 1, z: 0}
    second:
      serializedVersion: 2
      m_TileIndex: 22
      m_TileSpriteIndex: 22
      m_TileMatrixIndex: 0
      m_TileColorIndex: 0
      m_TileObjectToInstantiateIndex: 65535
      dummyAlignment: 0
      m_AllTileFlags: 1073741825
  - first: {x: 9, y: 1, z: 0}
    second:
      serializedVersion: 2
      m_TileIndex: 23
      m_TileSpriteIndex: 23
      m_TileMatrixIndex: 0
      m_TileColorIndex: 0
      m_TileObjectToInstantiateIndex: 65535
      dummyAlignment: 0
      m_AllTileFlags: 1073741825
  - first: {x: -2, y: 2, z: 0}
    second:
      serializedVersion: 2
      m_TileIndex: 0
      m_TileSpriteIndex: 0
      m_TileMatrixIndex: 0
      m_TileColorIndex: 0
      m_TileObjectToInstantiateIndex: 65535
      dummyAlignment: 0
      m_AllTileFlags: 1073741825
  - first: {x: -1, y: 2, z: 0}
    second:
      serializedVersion: 2
      m_TileIndex: 1
      m_TileSpriteIndex: 1
      m_TileMatrixIndex: 0
      m_TileColorIndex: 0
      m_TileObjectToInstantiateIndex: 65535
      dummyAlignment: 0
      m_AllTileFlags: 1073741825
  - first: {x: 0, y: 2, z: 0}
    second:
      serializedVersion: 2
      m_TileIndex: 2
      m_TileSpriteIndex: 2
      m_TileMatrixIndex: 0
      m_TileColorIndex: 0
      m_TileObjectToInstantiateIndex: 65535
      dummyAlignment: 0
      m_AllTileFlags: 1073741825
  - first: {x: 1, y: 2, z: 0}
    second:
      serializedVersion: 2
      m_TileIndex: 3
      m_TileSpriteIndex: 3
      m_TileMatrixIndex: 0
      m_TileColorIndex: 0
      m_TileObjectToInstantiateIndex: 65535
      dummyAlignment: 0
      m_AllTileFlags: 1073741825
  - first: {x: 2, y: 2, z: 0}
    second:
      serializedVersion: 2
      m_TileIndex: 4
      m_TileSpriteIndex: 4
      m_TileMatrixIndex: 0
      m_TileColorIndex: 0
      m_TileObjectToInstantiateIndex: 65535
      dummyAlignment: 0
      m_AllTileFlags: 1073741825
  - first: {x: 3, y: 2, z: 0}
    second:
      serializedVersion: 2
      m_TileIndex: 5
      m_TileSpriteIndex: 5
      m_TileMatrixIndex: 0
      m_TileColorIndex: 0
      m_TileObjectToInstantiateIndex: 65535
      dummyAlignment: 0
      m_AllTileFlags: 1073741825
  - first: {x: 4, y: 2, z: 0}
    second:
      serializedVersion: 2
      m_TileIndex: 6
      m_TileSpriteIndex: 6
      m_TileMatrixIndex: 0
      m_TileColorIndex: 0
      m_TileObjectToInstantiateIndex: 65535
      dummyAlignment: 0
      m_AllTileFlags: 1073741825
  - first: {x: 5, y: 2, z: 0}
    second:
      serializedVersion: 2
      m_TileIndex: 7
      m_TileSpriteIndex: 7
      m_TileMatrixIndex: 0
      m_TileColorIndex: 0
      m_TileObjectToInstantiateIndex: 65535
      dummyAlignment: 0
      m_AllTileFlags: 1073741825
  - first: {x: 6, y: 2, z: 0}
    second:
      serializedVersion: 2
      m_TileIndex: 8
      m_TileSpriteIndex: 8
      m_TileMatrixIndex: 0
      m_TileColorIndex: 0
      m_TileObjectToInstantiateIndex: 65535
      dummyAlignment: 0
      m_AllTileFlags: 1073741825
  - first: {x: 7, y: 2, z: 0}
    second:
      serializedVersion: 2
      m_TileIndex: 9
      m_TileSpriteIndex: 9
      m_TileMatrixIndex: 0
      m_TileColorIndex: 0
      m_TileObjectToInstantiateIndex: 65535
      dummyAlignment: 0
      m_AllTileFlags: 1073741825
  - first: {x: 8, y: 2, z: 0}
    second:
      serializedVersion: 2
      m_TileIndex: 10
      m_TileSpriteIndex: 10
      m_TileMatrixIndex: 0
      m_TileColorIndex: 0
      m_TileObjectToInstantiateIndex: 65535
      dummyAlignment: 0
      m_AllTileFlags: 1073741825
  - first: {x: 9, y: 2, z: 0}
    second:
      serializedVersion: 2
      m_TileIndex: 11
      m_TileSpriteIndex: 11
      m_TileMatrixIndex: 0
      m_TileColorIndex: 0
      m_TileObjectToInstantiateIndex: 65535
      dummyAlignment: 0
      m_AllTileFlags: 1073741825
  m_AnimatedTiles: {}
  m_TileAssetArray:
  - m_RefCount: 1
    m_Data: {fileID: 11400000, guid: 85b3c51e3a9d1b74d8aa9db4479ce313, type: 2}
  - m_RefCount: 1
    m_Data: {fileID: 11400000, guid: 24ff2a16b686b2b4da55979b1baf34db, type: 2}
  - m_RefCount: 1
    m_Data: {fileID: 11400000, guid: 902d10448ff5799409a3338602a70faa, type: 2}
  - m_RefCount: 1
    m_Data: {fileID: 11400000, guid: 17236e9b2c919e749bd9596243186dee, type: 2}
  - m_RefCount: 1
    m_Data: {fileID: 11400000, guid: ba4df256383a7e742b10948a5075f4b2, type: 2}
  - m_RefCount: 1
    m_Data: {fileID: 11400000, guid: bcad03ca0e7bf2642bed9e87e63f08ca, type: 2}
  - m_RefCount: 1
    m_Data: {fileID: 11400000, guid: d0f02ff65d33bc24699432ee9a45072c, type: 2}
  - m_RefCount: 1
    m_Data: {fileID: 11400000, guid: 2dd28da8f03b5f845abe22c2a7fdfe86, type: 2}
  - m_RefCount: 1
    m_Data: {fileID: 11400000, guid: 5cce934cfa13b364587f24d9bbe7cc57, type: 2}
  - m_RefCount: 1
    m_Data: {fileID: 11400000, guid: e7f367e861c3bb14f8fa9c692ffe293b, type: 2}
  - m_RefCount: 1
    m_Data: {fileID: 11400000, guid: 3fb4bff9e33e81c4f868a6f76b7bb16d, type: 2}
  - m_RefCount: 1
    m_Data: {fileID: 11400000, guid: 4ac5bc0c2f28f0b4094b9d446dea9f7d, type: 2}
  - m_RefCount: 1
    m_Data: {fileID: 11400000, guid: a1a46a94f03bea344ac340687de74cb6, type: 2}
  - m_RefCount: 1
    m_Data: {fileID: 11400000, guid: ea90ddd00896b4c4ea1ce9e0d2d99806, type: 2}
  - m_RefCount: 1
    m_Data: {fileID: 11400000, guid: 4c8624b9871a66c46b2b6c096ba0fe71, type: 2}
  - m_RefCount: 1
    m_Data: {fileID: 11400000, guid: 76c8ca8cc5da1ba43973e31bf4a2e52f, type: 2}
  - m_RefCount: 1
    m_Data: {fileID: 11400000, guid: 83ff6ea0d8d26e542a374e6041262fa6, type: 2}
  - m_RefCount: 1
    m_Data: {fileID: 11400000, guid: 60c6f405e7d4ff745af5f3b01994eb57, type: 2}
  - m_RefCount: 1
    m_Data: {fileID: 11400000, guid: 2bdbfabad37a10b4facdbacd4f348a87, type: 2}
  - m_RefCount: 1
    m_Data: {fileID: 11400000, guid: 5255df835c735164286a64751cc80680, type: 2}
  - m_RefCount: 1
    m_Data: {fileID: 11400000, guid: 6a5ca1e81dda4e04ea3d70ebe67dcf82, type: 2}
  - m_RefCount: 1
    m_Data: {fileID: 11400000, guid: 3ea2e5ab360551d458c31e46decdc5b3, type: 2}
  - m_RefCount: 1
    m_Data: {fileID: 11400000, guid: 6e315fb6d8e107c44a4477fe2cc6b918, type: 2}
  - m_RefCount: 1
    m_Data: {fileID: 11400000, guid: 8554e64ce93d1674186a9887eece88b0, type: 2}
  - m_RefCount: 1
    m_Data: {fileID: 11400000, guid: 7c9afad17d3451f4cacdea10f4dad87d, type: 2}
  - m_RefCount: 1
    m_Data: {fileID: 11400000, guid: 1ce951f9f95852c4f84e69b2b6c3153c, type: 2}
  - m_RefCount: 1
    m_Data: {fileID: 11400000, guid: f33bb5cf494d3c449b1a84068bef5c94, type: 2}
  - m_RefCount: 1
    m_Data: {fileID: 11400000, guid: 17f7077a1843ae448bc9b8823745840d, type: 2}
  - m_RefCount: 1
    m_Data: {fileID: 11400000, guid: 065d1fb77f18ab3469345b29a3aad468, type: 2}
  - m_RefCount: 1
    m_Data: {fileID: 11400000, guid: 69cc653173d70714db9047aef8feafee, type: 2}
  - m_RefCount: 1
    m_Data: {fileID: 11400000, guid: 073b5512bc0a978499cfb031d6cd07a5, type: 2}
  - m_RefCount: 1
    m_Data: {fileID: 11400000, guid: 4ef64239c39bc3d449a60e4ae679c298, type: 2}
  - m_RefCount: 1
    m_Data: {fileID: 11400000, guid: 328789ea5b3a94943a1ba4a3e949348e, type: 2}
  - m_RefCount: 1
    m_Data: {fileID: 11400000, guid: 4934bb0d1039b1842a50c8fec68d1df1, type: 2}
  - m_RefCount: 1
    m_Data: {fileID: 11400000, guid: cdb16de92191915448bfb359e941a43f, type: 2}
  - m_RefCount: 1
    m_Data: {fileID: 11400000, guid: 6863bcfb86485094383c75eeb77a3c93, type: 2}
  - m_RefCount: 1
    m_Data: {fileID: 11400000, guid: 4fe54708721a36742866f354de6ae6b0, type: 2}
  - m_RefCount: 1
    m_Data: {fileID: 11400000, guid: 936a4a342b311c94ba94880c14fe3998, type: 2}
  - m_RefCount: 1
    m_Data: {fileID: 11400000, guid: 3b85adccc9d691a48aba20aa0bd617ad, type: 2}
  - m_RefCount: 1
    m_Data: {fileID: 11400000, guid: 73c3b8a6b4704844aa34f683e736633d, type: 2}
  - m_RefCount: 1
    m_Data: {fileID: 11400000, guid: f3538e055255d3c49876d0bbb2d571e3, type: 2}
  - m_RefCount: 1
    m_Data: {fileID: 11400000, guid: 131e1e1e2ff5ff649971dfef5ef1e52b, type: 2}
  - m_RefCount: 1
    m_Data: {fileID: 11400000, guid: 7501636d7a4b19248a3239c10222a84c, type: 2}
  - m_RefCount: 1
    m_Data: {fileID: 11400000, guid: 9277c4d008934d74a84b83b630bd8f3a, type: 2}
  - m_RefCount: 1
    m_Data: {fileID: 11400000, guid: c52ef845ab822e44fa1c9dff75b2eeef, type: 2}
  - m_RefCount: 1
    m_Data: {fileID: 11400000, guid: a7e6bdea298f4c3429ca3c2efcd59cf8, type: 2}
  - m_RefCount: 1
    m_Data: {fileID: 11400000, guid: 857d94b351555234d824116b75725f6f, type: 2}
  - m_RefCount: 1
    m_Data: {fileID: 11400000, guid: 9bc53f4fbce885242bf6b2dc3c1be5f3, type: 2}
  - m_RefCount: 1
    m_Data: {fileID: 11400000, guid: f0d9dcf5bbfac8948a79a4b9e55da06b, type: 2}
  - m_RefCount: 1
    m_Data: {fileID: 11400000, guid: 7384a29b0dc209f46bc01526275ed2fe, type: 2}
  - m_RefCount: 1
    m_Data: {fileID: 11400000, guid: fdd598d63a97512498a71d7db75a7449, type: 2}
  - m_RefCount: 1
    m_Data: {fileID: 11400000, guid: 5c49a5b5563049f4181c3122c2baecf6, type: 2}
  - m_RefCount: 1
    m_Data: {fileID: 11400000, guid: 5939d66ab9644264c809d2bb13760a08, type: 2}
  - m_RefCount: 1
    m_Data: {fileID: 11400000, guid: 699f413fcf569db4189eebb26f604c63, type: 2}
  - m_RefCount: 1
    m_Data: {fileID: 11400000, guid: c1400254783848846815bb0274474724, type: 2}
  - m_RefCount: 1
    m_Data: {fileID: 11400000, guid: 827ff9a7d87698241895dbce4b2c25ef, type: 2}
  - m_RefCount: 1
    m_Data: {fileID: 11400000, guid: af54451f71f945a43b8006ff53c9143f, type: 2}
  - m_RefCount: 1
    m_Data: {fileID: 11400000, guid: 539dadb47abd9294686eb493271eab7b, type: 2}
  - m_RefCount: 1
    m_Data: {fileID: 11400000, guid: 2f17c47747905854781ceee66dbf5e1f, type: 2}
  - m_RefCount: 1
    m_Data: {fileID: 11400000, guid: 10e0f065ae2f7fd449ff0ea7ad2a01ab, type: 2}
  - m_RefCount: 1
    m_Data: {fileID: 11400000, guid: 7fe6dc3461a7826448622ca44f244750, type: 2}
  - m_RefCount: 1
    m_Data: {fileID: 11400000, guid: 502cb6e15a2291b46a395189355a821c, type: 2}
  - m_RefCount: 1
    m_Data: {fileID: 11400000, guid: 3a5aeeac54af0dd4db55c83581a26609, type: 2}
  - m_RefCount: 1
    m_Data: {fileID: 11400000, guid: d7bbb413d2ef3064bb1779e0b3a61b88, type: 2}
  - m_RefCount: 1
    m_Data: {fileID: 11400000, guid: 4071761aa17bb474f87da75be0074074, type: 2}
  - m_RefCount: 1
    m_Data: {fileID: 11400000, guid: 1db7815cdd19c6b48ac2a93a88d66fb8, type: 2}
  - m_RefCount: 1
    m_Data: {fileID: 11400000, guid: 62efde65cfc1ed441ba562e6a38f2874, type: 2}
  - m_RefCount: 1
    m_Data: {fileID: 11400000, guid: 9a098e93cea6d58418c5071bafe3820b, type: 2}
  - m_RefCount: 1
    m_Data: {fileID: 11400000, guid: d33c31dd63cedca42ac26b6966077d6c, type: 2}
  - m_RefCount: 1
    m_Data: {fileID: 11400000, guid: ba6998c0bd7dbca499cd62db31ecb731, type: 2}
  - m_RefCount: 1
    m_Data: {fileID: 11400000, guid: f7ad27f1016dd8d4faaea2db1cc02ecc, type: 2}
  - m_RefCount: 1
    m_Data: {fileID: 11400000, guid: 2dfae6c9f6b66d749b6025b8900c30e3, type: 2}
  - m_RefCount: 1
    m_Data: {fileID: 11400000, guid: e239fb6261673ac4fa22b237c2d9f18e, type: 2}
  - m_RefCount: 1
    m_Data: {fileID: 11400000, guid: 12edefbdd6299bf49a52e1340d97bfb0, type: 2}
  - m_RefCount: 1
    m_Data: {fileID: 11400000, guid: 564a889d266e91d469a4f3dd46b22994, type: 2}
  - m_RefCount: 1
    m_Data: {fileID: 11400000, guid: c08fd273f09b2d240a9ae47b9b88873a, type: 2}
  - m_RefCount: 1
    m_Data: {fileID: 11400000, guid: fc33826fef65e8448ae8d095c7c4f528, type: 2}
  - m_RefCount: 1
    m_Data: {fileID: 11400000, guid: 25ae3040b73e5644ead1b092d903ade8, type: 2}
  - m_RefCount: 1
    m_Data: {fileID: 11400000, guid: 2c5f2243ed23acb46b2489c2bae00031, type: 2}
  - m_RefCount: 1
    m_Data: {fileID: 11400000, guid: 3fd7de9ad1c72cf4da77053395fe2a69, type: 2}
  - m_RefCount: 1
    m_Data: {fileID: 11400000, guid: e37ee37e153606442b0ef649c2e0a8b9, type: 2}
  - m_RefCount: 1
    m_Data: {fileID: 11400000, guid: 3c6cf2f3ed23b8a4997437663aef3001, type: 2}
  - m_RefCount: 1
    m_Data: {fileID: 11400000, guid: 0fa2d1a7193bd364882583041d7984aa, type: 2}
  - m_RefCount: 1
    m_Data: {fileID: 11400000, guid: 9057e4c51050b3a45bbadfb30d91dfc6, type: 2}
  - m_RefCount: 1
    m_Data: {fileID: 11400000, guid: 8acd3237773095648bc6bfbaef00dec9, type: 2}
  - m_RefCount: 1
    m_Data: {fileID: 11400000, guid: e2d125426081c1648b912369e931a524, type: 2}
  - m_RefCount: 1
    m_Data: {fileID: 11400000, guid: fccd7a90c00027a40b8e2cf6b1150792, type: 2}
  - m_RefCount: 1
    m_Data: {fileID: 11400000, guid: 454f4b5533d698049b8e84332125f2a5, type: 2}
  - m_RefCount: 1
    m_Data: {fileID: 11400000, guid: 43d147b57ff3a214196cfee2baf0292d, type: 2}
  - m_RefCount: 1
    m_Data: {fileID: 11400000, guid: 681d345bbcf76d0429ba0f0a5e1a6c53, type: 2}
  - m_RefCount: 1
    m_Data: {fileID: 11400000, guid: 2282a822766a9dd4e80473b4d2333e6c, type: 2}
  - m_RefCount: 1
    m_Data: {fileID: 11400000, guid: e91940d41fc6c1141916934c59dc741f, type: 2}
  - m_RefCount: 1
    m_Data: {fileID: 11400000, guid: b63bfd0d8dc37b0438d403dc2cb9c40a, type: 2}
  - m_RefCount: 1
    m_Data: {fileID: 11400000, guid: 2e94800c82c673249b123bc59c2522d1, type: 2}
  - m_RefCount: 1
    m_Data: {fileID: 11400000, guid: 1c2952793b771144e8deb7434864c780, type: 2}
  - m_RefCount: 1
    m_Data: {fileID: 11400000, guid: 21a7b028ed9ec0044818dc80950005b3, type: 2}
  - m_RefCount: 1
    m_Data: {fileID: 11400000, guid: 2e0c2fae699ac554ab07de54a2b9ea11, type: 2}
  - m_RefCount: 1
    m_Data: {fileID: 11400000, guid: c9a86dc73f9dfb64bace0fe5a45a7633, type: 2}
  - m_RefCount: 1
    m_Data: {fileID: 11400000, guid: 9b31d36eec0c03a48b0562ae49923bcd, type: 2}
  - m_RefCount: 1
    m_Data: {fileID: 11400000, guid: 0ab56a1201ef4744e9f1f773fc22a2c3, type: 2}
  - m_RefCount: 1
    m_Data: {fileID: 11400000, guid: c29bc2fa83409a348abd72dd744c506d, type: 2}
  - m_RefCount: 1
    m_Data: {fileID: 11400000, guid: 01293523400c9af4fb68aa7046f5e9e4, type: 2}
  - m_RefCount: 1
    m_Data: {fileID: 11400000, guid: a7f4d7636a933c44faedb11846d71645, type: 2}
  - m_RefCount: 1
    m_Data: {fileID: 11400000, guid: 0417dd95fd1f0ec42a7ced4ef0d1ffbd, type: 2}
  - m_RefCount: 1
    m_Data: {fileID: 11400000, guid: dea73d9fc61603041b5ecc970531a7a8, type: 2}
  - m_RefCount: 1
    m_Data: {fileID: 11400000, guid: 3c6b8d9fcb2b240438abb2fbfbda0ebe, type: 2}
  - m_RefCount: 1
    m_Data: {fileID: 11400000, guid: a61eb94125a76f949b036167bda5b9b6, type: 2}
  - m_RefCount: 1
    m_Data: {fileID: 11400000, guid: be7cbab92278d0543a8afae1e589fa62, type: 2}
  - m_RefCount: 1
    m_Data: {fileID: 11400000, guid: 69b793af53cae804da63f2f081fe4be3, type: 2}
  - m_RefCount: 1
    m_Data: {fileID: 11400000, guid: fa2bf6a07adfa064dbdb71b159257164, type: 2}
  - m_RefCount: 1
    m_Data: {fileID: 11400000, guid: 44e83661af85368429f5278f4f60ed28, type: 2}
  - m_RefCount: 1
    m_Data: {fileID: 11400000, guid: 6fd2ea36dd2cc4141ae5e2aaff59c941, type: 2}
  - m_RefCount: 1
    m_Data: {fileID: 11400000, guid: face49129b3cc6744aaf2a77ec4f428f, type: 2}
  - m_RefCount: 1
    m_Data: {fileID: 11400000, guid: f00a979526b5dc14a867e46fad34e2bc, type: 2}
  - m_RefCount: 1
    m_Data: {fileID: 11400000, guid: 3d2837e1eb18ea64399779650ca13da0, type: 2}
  - m_RefCount: 1
    m_Data: {fileID: 11400000, guid: b23de20b69ab81346909823a012c9fe6, type: 2}
  - m_RefCount: 1
    m_Data: {fileID: 11400000, guid: 9612c4e1ec2f2694b95ccaa378fa3472, type: 2}
  - m_RefCount: 1
    m_Data: {fileID: 11400000, guid: 5814e72a26b548d44bb3d89c61f0c45a, type: 2}
  - m_RefCount: 1
    m_Data: {fileID: 11400000, guid: cec0f667e0ff73a4e9ef397c33806eab, type: 2}
  - m_RefCount: 1
    m_Data: {fileID: 11400000, guid: 0c1ad0b2938f9e5449495e9d11b0562f, type: 2}
  - m_RefCount: 1
    m_Data: {fileID: 11400000, guid: 332809643bbf3be4fbdc358601941468, type: 2}
  - m_RefCount: 1
    m_Data: {fileID: 11400000, guid: 88e8f77b8d14b034682740df2c95d2c9, type: 2}
  - m_RefCount: 1
    m_Data: {fileID: 11400000, guid: da8be4d661e8af54999621473c51a468, type: 2}
  - m_RefCount: 1
    m_Data: {fileID: 11400000, guid: 2d8a5baed4d378b43b8091b581bdcea0, type: 2}
  - m_RefCount: 1
    m_Data: {fileID: 11400000, guid: c00d202f38e3cb847bc133a073011404, type: 2}
  - m_RefCount: 1
    m_Data: {fileID: 11400000, guid: bfca141ef2417e649924cce5061c9c9a, type: 2}
  - m_RefCount: 1
    m_Data: {fileID: 11400000, guid: bf37eb74827bff945a353b0e8a0f776e, type: 2}
  - m_RefCount: 1
    m_Data: {fileID: 11400000, guid: b14cb6429a8fd304ba77fda071b9729b, type: 2}
  - m_RefCount: 1
    m_Data: {fileID: 11400000, guid: adf1abf9cc5aa5f43884502f8894a873, type: 2}
  - m_RefCount: 1
    m_Data: {fileID: 11400000, guid: b7cb50525e5480a4e85bf1cf0c05f8b5, type: 2}
  - m_RefCount: 1
    m_Data: {fileID: 11400000, guid: 8a6b57642af47f647b3e9b4a4f7f102c, type: 2}
  - m_RefCount: 1
    m_Data: {fileID: 11400000, guid: 1b996b6afdf47f74780b3de3f5f124fd, type: 2}
  - m_RefCount: 1
    m_Data: {fileID: 11400000, guid: 8954e4643f736b94c928099abf0aedb5, type: 2}
  - m_RefCount: 1
    m_Data: {fileID: 11400000, guid: 76ac2ce3f6145b245a13cfd993dd41d1, type: 2}
  - m_RefCount: 1
    m_Data: {fileID: 11400000, guid: 9c3bf92b51217ad4ebdac1b7ee4bf1d2, type: 2}
  m_TileSpriteArray:
  - m_RefCount: 1
    m_Data: {fileID: 21300084, guid: 7810966f0f690954c87305933cabf2b0, type: 3}
  - m_RefCount: 1
    m_Data: {fileID: 21300178, guid: 7810966f0f690954c87305933cabf2b0, type: 3}
  - m_RefCount: 1
    m_Data: {fileID: 21300154, guid: 7810966f0f690954c87305933cabf2b0, type: 3}
  - m_RefCount: 1
    m_Data: {fileID: 21300156, guid: 7810966f0f690954c87305933cabf2b0, type: 3}
  - m_RefCount: 1
    m_Data: {fileID: 21300158, guid: 7810966f0f690954c87305933cabf2b0, type: 3}
  - m_RefCount: 1
    m_Data: {fileID: 21300064, guid: 7810966f0f690954c87305933cabf2b0, type: 3}
  - m_RefCount: 1
    m_Data: {fileID: 21300074, guid: 7810966f0f690954c87305933cabf2b0, type: 3}
  - m_RefCount: 1
    m_Data: {fileID: 21300124, guid: 7810966f0f690954c87305933cabf2b0, type: 3}
  - m_RefCount: 1
    m_Data: {fileID: 21300122, guid: 7810966f0f690954c87305933cabf2b0, type: 3}
  - m_RefCount: 1
    m_Data: {fileID: 21300008, guid: 7810966f0f690954c87305933cabf2b0, type: 3}
  - m_RefCount: 1
    m_Data: {fileID: 21300214, guid: 7810966f0f690954c87305933cabf2b0, type: 3}
  - m_RefCount: 1
    m_Data: {fileID: 21300196, guid: 7810966f0f690954c87305933cabf2b0, type: 3}
  - m_RefCount: 1
    m_Data: {fileID: 21300052, guid: 7810966f0f690954c87305933cabf2b0, type: 3}
  - m_RefCount: 1
    m_Data: {fileID: 21300054, guid: 7810966f0f690954c87305933cabf2b0, type: 3}
  - m_RefCount: 1
    m_Data: {fileID: 21300058, guid: 7810966f0f690954c87305933cabf2b0, type: 3}
  - m_RefCount: 1
    m_Data: {fileID: 21300060, guid: 7810966f0f690954c87305933cabf2b0, type: 3}
  - m_RefCount: 1
    m_Data: {fileID: 21300056, guid: 7810966f0f690954c87305933cabf2b0, type: 3}
  - m_RefCount: 1
    m_Data: {fileID: 21300182, guid: 7810966f0f690954c87305933cabf2b0, type: 3}
  - m_RefCount: 1
    m_Data: {fileID: 21300160, guid: 7810966f0f690954c87305933cabf2b0, type: 3}
  - m_RefCount: 1
    m_Data: {fileID: 21300068, guid: 7810966f0f690954c87305933cabf2b0, type: 3}
  - m_RefCount: 1
    m_Data: {fileID: 21300110, guid: 7810966f0f690954c87305933cabf2b0, type: 3}
  - m_RefCount: 1
    m_Data: {fileID: 21300112, guid: 7810966f0f690954c87305933cabf2b0, type: 3}
  - m_RefCount: 1
    m_Data: {fileID: 21300114, guid: 7810966f0f690954c87305933cabf2b0, type: 3}
  - m_RefCount: 1
    m_Data: {fileID: 21300128, guid: 7810966f0f690954c87305933cabf2b0, type: 3}
  - m_RefCount: 1
    m_Data: {fileID: 21300198, guid: 7810966f0f690954c87305933cabf2b0, type: 3}
  - m_RefCount: 1
    m_Data: {fileID: 21300174, guid: 7810966f0f690954c87305933cabf2b0, type: 3}
  - m_RefCount: 1
    m_Data: {fileID: 21300004, guid: 7810966f0f690954c87305933cabf2b0, type: 3}
  - m_RefCount: 1
    m_Data: {fileID: 21300006, guid: 7810966f0f690954c87305933cabf2b0, type: 3}
  - m_RefCount: 1
    m_Data: {fileID: 21300236, guid: 7810966f0f690954c87305933cabf2b0, type: 3}
  - m_RefCount: 1
    m_Data: {fileID: 21300238, guid: 7810966f0f690954c87305933cabf2b0, type: 3}
  - m_RefCount: 1
    m_Data: {fileID: 21300240, guid: 7810966f0f690954c87305933cabf2b0, type: 3}
  - m_RefCount: 1
    m_Data: {fileID: 21300242, guid: 7810966f0f690954c87305933cabf2b0, type: 3}
  - m_RefCount: 1
    m_Data: {fileID: 21300248, guid: 7810966f0f690954c87305933cabf2b0, type: 3}
  - m_RefCount: 1
    m_Data: {fileID: 21300250, guid: 7810966f0f690954c87305933cabf2b0, type: 3}
  - m_RefCount: 1
    m_Data: {fileID: 21300252, guid: 7810966f0f690954c87305933cabf2b0, type: 3}
  - m_RefCount: 1
    m_Data: {fileID: 21300254, guid: 7810966f0f690954c87305933cabf2b0, type: 3}
  - m_RefCount: 1
    m_Data: {fileID: 21300244, guid: 7810966f0f690954c87305933cabf2b0, type: 3}
  - m_RefCount: 1
    m_Data: {fileID: 21300230, guid: 7810966f0f690954c87305933cabf2b0, type: 3}
  - m_RefCount: 1
    m_Data: {fileID: 21300232, guid: 7810966f0f690954c87305933cabf2b0, type: 3}
  - m_RefCount: 1
    m_Data: {fileID: 21300234, guid: 7810966f0f690954c87305933cabf2b0, type: 3}
  - m_RefCount: 1
    m_Data: {fileID: 21300246, guid: 7810966f0f690954c87305933cabf2b0, type: 3}
  - m_RefCount: 1
    m_Data: {fileID: 21300000, guid: 7810966f0f690954c87305933cabf2b0, type: 3}
  - m_RefCount: 1
    m_Data: {fileID: 21300002, guid: 7810966f0f690954c87305933cabf2b0, type: 3}
  - m_RefCount: 1
    m_Data: {fileID: 21300180, guid: 7810966f0f690954c87305933cabf2b0, type: 3}
  - m_RefCount: 1
    m_Data: {fileID: 21300036, guid: 7810966f0f690954c87305933cabf2b0, type: 3}
  - m_RefCount: 1
    m_Data: {fileID: 21300024, guid: 7810966f0f690954c87305933cabf2b0, type: 3}
  - m_RefCount: 1
    m_Data: {fileID: 21300026, guid: 7810966f0f690954c87305933cabf2b0, type: 3}
  - m_RefCount: 1
    m_Data: {fileID: 21300028, guid: 7810966f0f690954c87305933cabf2b0, type: 3}
  - m_RefCount: 1
    m_Data: {fileID: 21300030, guid: 7810966f0f690954c87305933cabf2b0, type: 3}
  - m_RefCount: 1
    m_Data: {fileID: 21300032, guid: 7810966f0f690954c87305933cabf2b0, type: 3}
  - m_RefCount: 1
    m_Data: {fileID: 21300034, guid: 7810966f0f690954c87305933cabf2b0, type: 3}
  - m_RefCount: 1
    m_Data: {fileID: 21300038, guid: 7810966f0f690954c87305933cabf2b0, type: 3}
  - m_RefCount: 1
    m_Data: {fileID: 21300040, guid: 7810966f0f690954c87305933cabf2b0, type: 3}
  - m_RefCount: 1
    m_Data: {fileID: 21300268, guid: 7810966f0f690954c87305933cabf2b0, type: 3}
  - m_RefCount: 1
    m_Data: {fileID: 21300100, guid: 7810966f0f690954c87305933cabf2b0, type: 3}
  - m_RefCount: 1
    m_Data: {fileID: 21300108, guid: 7810966f0f690954c87305933cabf2b0, type: 3}
  - m_RefCount: 1
    m_Data: {fileID: 21300200, guid: 7810966f0f690954c87305933cabf2b0, type: 3}
  - m_RefCount: 1
    m_Data: {fileID: 21300094, guid: 7810966f0f690954c87305933cabf2b0, type: 3}
  - m_RefCount: 1
    m_Data: {fileID: 21300096, guid: 7810966f0f690954c87305933cabf2b0, type: 3}
  - m_RefCount: 1
    m_Data: {fileID: 21300098, guid: 7810966f0f690954c87305933cabf2b0, type: 3}
  - m_RefCount: 1
    m_Data: {fileID: 21300102, guid: 7810966f0f690954c87305933cabf2b0, type: 3}
  - m_RefCount: 1
    m_Data: {fileID: 21300104, guid: 7810966f0f690954c87305933cabf2b0, type: 3}
  - m_RefCount: 1
    m_Data: {fileID: 21300106, guid: 7810966f0f690954c87305933cabf2b0, type: 3}
  - m_RefCount: 1
    m_Data: {fileID: 21300086, guid: 7810966f0f690954c87305933cabf2b0, type: 3}
  - m_RefCount: 1
    m_Data: {fileID: 21300088, guid: 7810966f0f690954c87305933cabf2b0, type: 3}
  - m_RefCount: 1
    m_Data: {fileID: 21300090, guid: 7810966f0f690954c87305933cabf2b0, type: 3}
  - m_RefCount: 1
    m_Data: {fileID: 21300092, guid: 7810966f0f690954c87305933cabf2b0, type: 3}
  - m_RefCount: 1
    m_Data: {fileID: 21300130, guid: 7810966f0f690954c87305933cabf2b0, type: 3}
  - m_RefCount: 1
    m_Data: {fileID: 21300132, guid: 7810966f0f690954c87305933cabf2b0, type: 3}
  - m_RefCount: 1
    m_Data: {fileID: 21300186, guid: 7810966f0f690954c87305933cabf2b0, type: 3}
  - m_RefCount: 1
    m_Data: {fileID: 21300192, guid: 7810966f0f690954c87305933cabf2b0, type: 3}
  - m_RefCount: 1
    m_Data: {fileID: 21300076, guid: 7810966f0f690954c87305933cabf2b0, type: 3}
  - m_RefCount: 1
    m_Data: {fileID: 21300080, guid: 7810966f0f690954c87305933cabf2b0, type: 3}
  - m_RefCount: 1
    m_Data: {fileID: 21300078, guid: 7810966f0f690954c87305933cabf2b0, type: 3}
  - m_RefCount: 1
    m_Data: {fileID: 21300168, guid: 7810966f0f690954c87305933cabf2b0, type: 3}
  - m_RefCount: 1
    m_Data: {fileID: 21300202, guid: 7810966f0f690954c87305933cabf2b0, type: 3}
  - m_RefCount: 1
    m_Data: {fileID: 21300072, guid: 7810966f0f690954c87305933cabf2b0, type: 3}
  - m_RefCount: 1
    m_Data: {fileID: 21300070, guid: 7810966f0f690954c87305933cabf2b0, type: 3}
  - m_RefCount: 1
    m_Data: {fileID: 21300170, guid: 7810966f0f690954c87305933cabf2b0, type: 3}
  - m_RefCount: 1
    m_Data: {fileID: 21300220, guid: 7810966f0f690954c87305933cabf2b0, type: 3}
  - m_RefCount: 1
    m_Data: {fileID: 21300222, guid: 7810966f0f690954c87305933cabf2b0, type: 3}
  - m_RefCount: 1
    m_Data: {fileID: 21300224, guid: 7810966f0f690954c87305933cabf2b0, type: 3}
  - m_RefCount: 1
    m_Data: {fileID: 21300216, guid: 7810966f0f690954c87305933cabf2b0, type: 3}
  - m_RefCount: 1
    m_Data: {fileID: 21300218, guid: 7810966f0f690954c87305933cabf2b0, type: 3}
  - m_RefCount: 1
    m_Data: {fileID: 21300010, guid: 7810966f0f690954c87305933cabf2b0, type: 3}
  - m_RefCount: 1
    m_Data: {fileID: 21300012, guid: 7810966f0f690954c87305933cabf2b0, type: 3}
  - m_RefCount: 1
    m_Data: {fileID: 21300014, guid: 7810966f0f690954c87305933cabf2b0, type: 3}
  - m_RefCount: 1
    m_Data: {fileID: 21300256, guid: 7810966f0f690954c87305933cabf2b0, type: 3}
  - m_RefCount: 1
    m_Data: {fileID: 21300258, guid: 7810966f0f690954c87305933cabf2b0, type: 3}
  - m_RefCount: 1
    m_Data: {fileID: 21300016, guid: 7810966f0f690954c87305933cabf2b0, type: 3}
  - m_RefCount: 1
    m_Data: {fileID: 21300018, guid: 7810966f0f690954c87305933cabf2b0, type: 3}
  - m_RefCount: 1
    m_Data: {fileID: 21300020, guid: 7810966f0f690954c87305933cabf2b0, type: 3}
  - m_RefCount: 1
    m_Data: {fileID: 21300042, guid: 7810966f0f690954c87305933cabf2b0, type: 3}
  - m_RefCount: 1
    m_Data: {fileID: 21300044, guid: 7810966f0f690954c87305933cabf2b0, type: 3}
  - m_RefCount: 1
    m_Data: {fileID: 21300046, guid: 7810966f0f690954c87305933cabf2b0, type: 3}
  - m_RefCount: 1
    m_Data: {fileID: 21300048, guid: 7810966f0f690954c87305933cabf2b0, type: 3}
  - m_RefCount: 1
    m_Data: {fileID: 21300050, guid: 7810966f0f690954c87305933cabf2b0, type: 3}
  - m_RefCount: 1
    m_Data: {fileID: 21300134, guid: 7810966f0f690954c87305933cabf2b0, type: 3}
  - m_RefCount: 1
    m_Data: {fileID: 21300136, guid: 7810966f0f690954c87305933cabf2b0, type: 3}
  - m_RefCount: 1
    m_Data: {fileID: 21300138, guid: 7810966f0f690954c87305933cabf2b0, type: 3}
  - m_RefCount: 1
    m_Data: {fileID: 21300082, guid: 7810966f0f690954c87305933cabf2b0, type: 3}
  - m_RefCount: 1
    m_Data: {fileID: 21300164, guid: 7810966f0f690954c87305933cabf2b0, type: 3}
  - m_RefCount: 1
    m_Data: {fileID: 21300228, guid: 7810966f0f690954c87305933cabf2b0, type: 3}
  - m_RefCount: 1
    m_Data: {fileID: 21300260, guid: 7810966f0f690954c87305933cabf2b0, type: 3}
  - m_RefCount: 1
    m_Data: {fileID: 21300206, guid: 7810966f0f690954c87305933cabf2b0, type: 3}
  - m_RefCount: 1
    m_Data: {fileID: 21300208, guid: 7810966f0f690954c87305933cabf2b0, type: 3}
  - m_RefCount: 1
    m_Data: {fileID: 21300210, guid: 7810966f0f690954c87305933cabf2b0, type: 3}
  - m_RefCount: 1
    m_Data: {fileID: 21300212, guid: 7810966f0f690954c87305933cabf2b0, type: 3}
  - m_RefCount: 1
    m_Data: {fileID: 21300194, guid: 7810966f0f690954c87305933cabf2b0, type: 3}
  - m_RefCount: 1
    m_Data: {fileID: 21300188, guid: 7810966f0f690954c87305933cabf2b0, type: 3}
  - m_RefCount: 1
    m_Data: {fileID: 21300190, guid: 7810966f0f690954c87305933cabf2b0, type: 3}
  - m_RefCount: 1
    m_Data: {fileID: 21300150, guid: 7810966f0f690954c87305933cabf2b0, type: 3}
  - m_RefCount: 1
    m_Data: {fileID: 21300152, guid: 7810966f0f690954c87305933cabf2b0, type: 3}
  - m_RefCount: 1
    m_Data: {fileID: 21300062, guid: 7810966f0f690954c87305933cabf2b0, type: 3}
  - m_RefCount: 1
    m_Data: {fileID: 21300262, guid: 7810966f0f690954c87305933cabf2b0, type: 3}
  - m_RefCount: 1
    m_Data: {fileID: 21300264, guid: 7810966f0f690954c87305933cabf2b0, type: 3}
  - m_RefCount: 1
    m_Data: {fileID: 21300266, guid: 7810966f0f690954c87305933cabf2b0, type: 3}
  - m_RefCount: 1
    m_Data: {fileID: 21300166, guid: 7810966f0f690954c87305933cabf2b0, type: 3}
  - m_RefCount: 1
    m_Data: {fileID: 21300172, guid: 7810966f0f690954c87305933cabf2b0, type: 3}
  - m_RefCount: 1
    m_Data: {fileID: 21300022, guid: 7810966f0f690954c87305933cabf2b0, type: 3}
  - m_RefCount: 1
    m_Data: {fileID: 21300184, guid: 7810966f0f690954c87305933cabf2b0, type: 3}
  - m_RefCount: 1
    m_Data: {fileID: 21300120, guid: 7810966f0f690954c87305933cabf2b0, type: 3}
  - m_RefCount: 1
    m_Data: {fileID: 21300226, guid: 7810966f0f690954c87305933cabf2b0, type: 3}
  - m_RefCount: 1
    m_Data: {fileID: 21300162, guid: 7810966f0f690954c87305933cabf2b0, type: 3}
  - m_RefCount: 1
    m_Data: {fileID: 21300066, guid: 7810966f0f690954c87305933cabf2b0, type: 3}
  - m_RefCount: 1
    m_Data: {fileID: 21300140, guid: 7810966f0f690954c87305933cabf2b0, type: 3}
  - m_RefCount: 1
    m_Data: {fileID: 21300142, guid: 7810966f0f690954c87305933cabf2b0, type: 3}
  - m_RefCount: 1
    m_Data: {fileID: 21300144, guid: 7810966f0f690954c87305933cabf2b0, type: 3}
  - m_RefCount: 1
    m_Data: {fileID: 21300146, guid: 7810966f0f690954c87305933cabf2b0, type: 3}
  - m_RefCount: 1
    m_Data: {fileID: 21300148, guid: 7810966f0f690954c87305933cabf2b0, type: 3}
  - m_RefCount: 1
    m_Data: {fileID: 21300116, guid: 7810966f0f690954c87305933cabf2b0, type: 3}
  - m_RefCount: 1
    m_Data: {fileID: 21300118, guid: 7810966f0f690954c87305933cabf2b0, type: 3}
  - m_RefCount: 1
    m_Data: {fileID: 21300204, guid: 7810966f0f690954c87305933cabf2b0, type: 3}
  - m_RefCount: 1
    m_Data: {fileID: 21300176, guid: 7810966f0f690954c87305933cabf2b0, type: 3}
  - m_RefCount: 1
    m_Data: {fileID: 21300126, guid: 7810966f0f690954c87305933cabf2b0, type: 3}
  m_TileMatrixArray:
  - m_RefCount: 135
    m_Data:
      e00: 1
      e01: 0
      e02: 0
      e03: 0
      e10: 0
      e11: 1
      e12: 0
      e13: 0
      e20: 0
      e21: 0
      e22: 1
      e23: 0
      e30: 0
      e31: 0
      e32: 0
      e33: 1
  m_TileColorArray:
  - m_RefCount: 135
    m_Data: {r: 1, g: 1, b: 1, a: 1}
  m_TileObjectToInstantiateArray: []
  m_AnimationFrameRate: 1
  m_Color: {r: 1, g: 1, b: 1, a: 1}
  m_Origin: {x: -2, y: -9, z: 0}
  m_Size: {x: 12, y: 12, z: 1}
  m_TileAnchor: {x: 0.5, y: 0.5, z: 0}
  m_TileOrientation: 0
  m_TileOrientationMatrix:
    e00: 1
    e01: 0
    e02: 0
    e03: 0
    e10: 0
    e11: 1
    e12: 0
    e13: 0
    e20: 0
    e21: 0
    e22: 1
    e23: 0
    e30: 0
    e31: 0
    e32: 0
    e33: 1
--- !u!483693784 &6636865291732580378
TilemapRenderer:
  m_ObjectHideFlags: 0
  m_CorrespondingSourceObject: {fileID: 0}
  m_PrefabInstance: {fileID: 0}
  m_PrefabAsset: {fileID: 0}
  m_GameObject: {fileID: 3785321874815647063}
  m_Enabled: 1
  m_CastShadows: 0
  m_ReceiveShadows: 0
  m_DynamicOccludee: 0
  m_StaticShadowCaster: 0
  m_MotionVectors: 1
  m_LightProbeUsage: 0
  m_ReflectionProbeUsage: 0
  m_RayTracingMode: 0
  m_RayTraceProcedural: 0
  m_RenderingLayerMask: 1
  m_RendererPriority: 0
  m_Materials:
  - {fileID: 10754, guid: 0000000000000000f000000000000000, type: 0}
  m_StaticBatchInfo:
    firstSubMesh: 0
    subMeshCount: 0
  m_StaticBatchRoot: {fileID: 0}
  m_ProbeAnchor: {fileID: 0}
  m_LightProbeVolumeOverride: {fileID: 0}
  m_ScaleInLightmap: 1
  m_ReceiveGI: 1
  m_PreserveUVs: 0
  m_IgnoreNormalsForChartDetection: 0
  m_ImportantGI: 0
  m_StitchLightmapSeams: 1
  m_SelectedEditorRenderState: 0
  m_MinimumChartSize: 4
  m_AutoUVMaxDistance: 0.5
  m_AutoUVMaxAngle: 89
  m_LightmapParameters: {fileID: 0}
  m_SortingLayerID: 0
  m_SortingLayer: 0
  m_SortingOrder: 0
  m_ChunkSize: {x: 32, y: 32, z: 32}
  m_ChunkCullingBounds: {x: 2.0034647, y: 4.53125, z: 0}
  m_MaxChunkCount: 16
  m_MaxFrameAge: 16
  m_SortOrder: 0
  m_Mode: 0
  m_DetectChunkCullingBounds: 0
  m_MaskInteraction: 0
--- !u!114 &5698241300158885197
MonoBehaviour:
  m_ObjectHideFlags: 0
  m_CorrespondingSourceObject: {fileID: 0}
  m_PrefabInstance: {fileID: 0}
  m_PrefabAsset: {fileID: 0}
  m_GameObject: {fileID: 0}
  m_Enabled: 1
  m_EditorHideFlags: 0
  m_Script: {fileID: 12395, guid: 0000000000000000e000000000000000, type: 0}
  m_Name: Palette Settings
  m_EditorClassIdentifier: 
  cellSizing: 0
  m_TransparencySortMode: 0
  m_TransparencySortAxis: {x: 0, y: 0, z: 1}
